{
  "SAVE_DATA_VERSION_ID_INSTANCE": 982405775,
  "ID": 0,
  "IsDungeon": false,
  "IsFilled": false,
  "Depth": 0,
  "PackDepth": 0,
  "ParentID": 0,
  "RootID": 0,
  "Origin": {
    "x": 0,
    "y": 0,
    "z": 0
  },
  "Orientation": 0,
  "ChildIDs": [
    2
  ],
  "Links": [
    {
      "source": {
        "x": 249,
        "y": 65,
        "z": 145,
        "dimension": 0
      },
      "parent": {
        "x": -1,
        "y": -1,
        "z": -1
      },
      "tail": {
        "linkType": 2
      },
      "orientation": 2,
      "children": []
    },
    {
      "source": {
        "x": 186,
        "y": 68,
        "z": 34,
        "dimension": 0
      },
      "parent": {
        "x": -1,
        "y": -1,
        "z": -1
      },
      "tail": {
        "linkType": 2
      },
      "orientation": 2,
      "children": []
    },
    {
      "source": {
        "x": 147,
        "y": 62,
        "z": 25,
        "dimension": 0
      },
      "parent": {
        "x": -1,
        "y": -1,
        "z": -1
      },
      "tail": {
        "destination": {
          "x": 30,
          "y": 62,
          "z": 20,
          "dimension": 2
        },
        "linkType": 2
      },
      "orientation": 2,
      "children": []
    },
    {
      "source": {
        "x": 267,
        "y": 69,
        "z": 194,
        "dimension": 0
      },
      "parent": {
        "x": -1,
        "y": -1,
        "z": -1
      },
      "tail": {
        "linkType": 3
      },
      "orientation": 3,
      "children": []
    }
  ],
  "Tails": []
}